<!-- Generator: Adobe Illustrator 16.0.0, SVG Export Plug-In . SVG Version: 6.00 Build 0)  -->
<!DOCTYPE svg PUBLIC "-//W3C//DTD SVG 1.1//EN" "http://www.w3.org/Graphics/SVG/1.1/DTD/svg11.dtd">
<svg xmlns="http://www.w3.org/2000/svg" xmlns:xlink="http://www.w3.org/1999/xlink" version="1.1" id="Capa_1" x="0px" y="0px" width="378.94px" height="378.94px" viewBox="0 0 378.94 378.94" style="enable-background:new 0 0 378.94 378.94;" xml:space="preserve">
<g>
	<path d="M348.151,54.514c-19.883-19.884-46.315-30.826-74.435-30.826c-28.124,0-54.559,10.942-74.449,30.826l-9.798,9.8l-9.798-9.8   c-19.884-19.884-46.325-30.826-74.443-30.826c-28.117,0-54.56,10.942-74.442,30.826c-41.049,41.053-41.049,107.848,0,148.885   l147.09,147.091c2.405,2.414,5.399,3.892,8.527,4.461c1.049,0.207,2.104,0.303,3.161,0.303c4.161,0,8.329-1.587,11.498-4.764   l147.09-147.091C389.203,162.362,389.203,95.567,348.151,54.514z "/>
</g>
<g>
</g>
<g>
</g>
<g>
</g>
<g>
</g>
<g>
</g>
<g>
</g>
<g>
</g>
<g>
</g>
<g>
</g>
<g>
</g>
<g>
</g>
<g>
</g>
<g>
</g>
<g>
</g>
<g>
</g>
</svg>